id;temps;18 - 21 ;22 - 25 ;26 - 29 ;30 - 33 ;34 - 37 ;38 - 41 ;42 - 45 ;46 - 49 ;50 et +
1;8.45 ;20;20;20;20;20;20;20;20;20
2;9.00 ;20;19;19;19;19;20;20;20;20
3;9.10;20;18;18;18;18;20;20;20;20
4;9.15 ;19;18;18;18;18;19;20;20;20
5;9.25 ;19;17;17;17;17;19;20;20;20
6;9.30 ;18;17;17;17;17;18;20;20;20
7;9.40 ;18;16;16;16;16;18;20;20;20
8;9.45 ;17;16;16;16;16;17;19;20;20
9;9.55 ;17;15;15;15;15;17;19;20;20
10;10.00 ;16;15;15;15;15;16;18;20;20
11;10.10 ;16;14;14;14;14;16;18;20;20
12;10.15 ;15;14;14;14;14;15;17;19;20
13;10.25 ;15;13;13;13;13;15;17;19;20
14;10.30 ;14;13;13;13;13;14;16;18;20
15;10.40 ;14;12;12;12;12;14;16;18;20
16;10.45 ;13;12;12;12;12;13;15;17;19
17;10.55 ;13;11;11;11;11;13;15;17;19
18;11.00;12;11;11;11;11;12;14;16;18
19;11.10 ;12;10;10;10;10;12;14;16;18
20;11.15;11;10;10;10;10;11;13;15;17
21;11.25 ;11;9;9;9;9;11;13;15;17
22;11.30 ;10;9;9;9;9;10;12;14;16
23;11.40 ;10;8;8;8;8;10;12;14;16
24;11.45;9;8;8;8;8;9;11;13;15
25;11.55;9;7;7;7;7;9;11;13;15
26;12.00 ;8;7;7;7;7;8;10;12;14
27;12.10 ;8;6;6;6;6;8;10;12;14
28;12.15;7;6;6;6;6;7;9;11;13
29;12.25 ;7;5;5;5;5;7;9;11;13
30;12.30.;6;5;5;5;5;6;8;10;12
31;12.40.;6;4;4;4;4;6;8;10;12
32;12.45 ;5;4;4;4;4;5;7;9;11
33;12.55;5;3;3;3;3;5;7;9;11
34;13.00;4;3;3;3;3;4;6;8;10
35;13.10;4;2;2;2;2;4;6;8;10
36;13.15;3;2;2;2;2;3;5;7;9
37;13.25;3;1;1;1;1;3;5;7;9
38;13.30 ;2;1;1;1;1;2;4;6;8
39;13.40 ;2;0;0;0;0;2;4;6;8
40;13.45 ;1;0;0;0;0;1;3;5;7
41;13.55 ;1;0;0;0;0;1;3;5;7
42;14.10 ;0;0;0;0;0;0;2;4;6
43;14.25;0;0;0;0;0;0;1;3;5
44;14.40 ;0;0;0;0;0;0;0;2;4
45;14.55 ;0;0;0;0;0;0;0;1;3
46;15.10;0;0;0;0;0;0;0;0;2
47;15.25 ;0;0;0;0;0;0;0;0;1
48;15.40 ;0;0;0;0;0;0;0;0;0
